$)Ô+¶ÐÀÝE¥@@0À¨dÀ¨·í±oPrMOPTIONS rtsp://192.168.1.1:7070/webcam/ RTSP/1.0
CSeq: 2
User-Agent: LibVLC/3.0.8 (LIVE555 Streaming Media v2018.02.18)


$)Ô+¶ÐÀÝE¿@@/ùÀ¨dÀ¨·î.»PrgDESCRIBE rtsp://192.168.1.1:7070/webcam/ RTSP/1.0
CSeq: 3
User-Agent: LibVLC/3.0.8 (LIVE555 Streaming Media v2018.02.18)
Accept: application/sdp


$)Ô+¶ÐÀÝEÞ@@/ÙÀ¨dÀ¨·îÅµPu@SETUP rtsp://192.168.1.1:7070/webcam//track0 RTSP/1.0
CSeq: 4
User-Agent: LibVLC/3.0.8 (LIVE555 Streaming Media v2018.02.18)
Transport: RTP/AVP;unicast;client_port=46068-46069

$)Ô+¶ÐÀÝEß@@/×À¨dÀ¨·ï{FPypPLAY rtsp://192.168.1.1:7070/webcam// RTSP/1.0
CSeq: 5
User-Agent: LibVLC/3.0.8 (LIVE555 Streaming Media v2018.02.18)
Session: 82838485868788898A8B8C8D8E8F90
Range: npt=0.000-

